Biostat 203B Homework 5
…
# visualize the CV results
logit_res |>
  collect_metrics() |>
  print(width = Inf) |>
  filter(.metric == "roc_auc") |>
  ggplot(mapping = aes(x = penalty, y = mean, 
                       color = factor(mixture))) +
  geom_point() +
  labs(x = "Penalty", y = "CV Roc_Auc") +
  scale_x_log10()

# A tibble: 200 × 8
     penalty mixture .metric  .estimator  mean     n std_err
       <dbl>   <dbl> <chr>    <chr>      <dbl> <int>   <dbl>
 1 0.00001         0 accuracy binary     0.572     5 0.00196
 2 0.00001         0 roc_auc  binary     0.600     5 0.00233
 3 0.0000196       0 accuracy binary     0.572     5 0.00196
 4 0.0000196       0 roc_auc  binary     0.600     5 0.00233
 5 0.0000383       0 accuracy binary     0.572     5 0.00196
 6 0.0000383       0 roc_auc  binary     0.600     5 0.00233
 7 0.0000750       0 accuracy binary     0.572     5 0.00196
 8 0.0000750       0 roc_auc  binary     0.600     5 0.00233
 9 0.000147        0 accuracy binary     0.572     5 0.00196
10 0.000147        0 roc_auc  binary     0.600     5 0.00233
   .config               
   <chr>                 
 1 Preprocessor1_Model001
 2 Preprocessor1_Model001
 3 Preprocessor1_Model002
 4 Preprocessor1_Model002
 5 Preprocessor1_Model003
 6 Preprocessor1_Model003
 7 Preprocessor1_Model004
 8 Preprocessor1_Model004
 9 Preprocessor1_Model005
10 Preprocessor1_Model005
# ℹ 190 more rows
…
